<<<<<<< HEAD
/home/bravo/JardinApp/jardinapp-backend/JardinApp-Backend/src/main/java/com/adsicbi/jardinapp/jpa/entities/Paises.java
/home/bravo/JardinApp/jardinapp-backend/JardinApp-Backend/src/main/java/com/adsicbi/jardinapp/jpa/entities/Servicios.java
/home/bravo/JardinApp/jardinapp-backend/JardinApp-Backend/src/main/java/com/adsicbi/jardinapp/jpa/sessions/AbstractFacade.java
/home/bravo/JardinApp/jardinapp-backend/JardinApp-Backend/src/main/java/com/adsicbi/jardinapp/jpa/sessions/PedidosFacade.java
/home/bravo/JardinApp/jardinapp-backend/JardinApp-Backend/src/main/java/com/adsicbi/jardinapp/rest/auth/Token.java
/home/bravo/JardinApp/jardinapp-backend/JardinApp-Backend/src/main/java/com/adsicbi/jardinapp/rest/services/RolesRest.java
/home/bravo/JardinApp/jardinapp-backend/JardinApp-Backend/src/main/java/com/adsicbi/jardinapp/rest/auth/DigestUtil.java
/home/bravo/JardinApp/jardinapp-backend/JardinApp-Backend/src/main/java/com/adsicbi/jardinapp/jpa/sessions/CalificacionesFacade.java
/home/bravo/JardinApp/jardinapp-backend/JardinApp-Backend/src/main/java/com/adsicbi/jardinapp/jpa/sessions/ContactoFacade.java
/home/bravo/JardinApp/jardinapp-backend/JardinApp-Backend/src/main/java/com/adsicbi/jardinapp/jpa/entities/Usuarios.java
/home/bravo/JardinApp/jardinapp-backend/JardinApp-Backend/src/main/java/com/adsicbi/jardinapp/jpa/sessions/MiEmpresaFacade.java
/home/bravo/JardinApp/jardinapp-backend/JardinApp-Backend/src/main/java/com/adsicbi/jardinapp/jpa/sessions/DepartamentosFacade.java
/home/bravo/JardinApp/jardinapp-backend/JardinApp-Backend/src/main/java/com/adsicbi/jardinapp/rest/auth/AuthREST.java
/home/bravo/JardinApp/jardinapp-backend/JardinApp-Backend/src/main/java/com/adsicbi/jardinapp/jpa/entities/Calificaciones.java
/home/bravo/JardinApp/jardinapp-backend/JardinApp-Backend/src/main/java/com/adsicbi/jardinapp/jpa/entities/Roles.java
/home/bravo/JardinApp/jardinapp-backend/JardinApp-Backend/src/main/java/com/adsicbi/jardinapp/jpa/entities/Departamentos.java
/home/bravo/JardinApp/jardinapp-backend/JardinApp-Backend/src/main/java/com/adsicbi/jardinapp/jpa/sessions/PaisesFacade.java
/home/bravo/JardinApp/jardinapp-backend/JardinApp-Backend/src/main/java/com/adsicbi/jardinapp/jpa/entities/JardinesInfantiles.java
/home/bravo/JardinApp/jardinapp-backend/JardinApp-Backend/src/main/java/com/adsicbi/jardinapp/rest/services/DetallesPedidosRest.java
/home/bravo/JardinApp/jardinapp-backend/JardinApp-Backend/src/main/java/com/adsicbi/jardinapp/rest/services/InquietudesRest.java
/home/bravo/JardinApp/jardinapp-backend/JardinApp-Backend/src/main/java/com/adsicbi/jardinapp/jpa/entities/Anuncios.java
/home/bravo/JardinApp/jardinapp-backend/JardinApp-Backend/src/main/java/com/adsicbi/jardinapp/rest/services/UsuariosRest.java
/home/bravo/JardinApp/jardinapp-backend/JardinApp-Backend/src/main/java/com/adsicbi/jardinapp/jpa/entities/TiposJardines.java
/home/bravo/JardinApp/jardinapp-backend/JardinApp-Backend/src/main/java/com/adsicbi/jardinapp/jpa/sessions/JardinesInfantilesFacade.java
/home/bravo/JardinApp/jardinapp-backend/JardinApp-Backend/src/main/java/com/adsicbi/jardinapp/jpa/sessions/InquietudesFacade.java
/home/bravo/JardinApp/jardinapp-backend/JardinApp-Backend/src/main/java/com/adsicbi/jardinapp/jpa/sessions/HijosFacade.java
/home/bravo/JardinApp/jardinapp-backend/JardinApp-Backend/src/main/java/com/adsicbi/jardinapp/rest/auth/NewCrossOriginResourceSharingFilter.java
/home/bravo/JardinApp/jardinapp-backend/JardinApp-Backend/src/main/java/com/adsicbi/jardinapp/jpa/sessions/ServiciosFacade.java
/home/bravo/JardinApp/jardinapp-backend/JardinApp-Backend/src/main/java/com/adsicbi/jardinapp/jpa/entities/Contacto.java
/home/bravo/JardinApp/jardinapp-backend/JardinApp-Backend/src/main/java/com/adsicbi/jardinapp/jpa/entities/Ciudades.java
/home/bravo/JardinApp/jardinapp-backend/JardinApp-Backend/src/main/java/com/adsicbi/jardinapp/jpa/sessions/RolesFacade.java
/home/bravo/JardinApp/jardinapp-backend/JardinApp-Backend/src/main/java/com/adsicbi/jardinapp/jpa/sessions/AnunciosFacade.java
/home/bravo/JardinApp/jardinapp-backend/JardinApp-Backend/src/main/java/com/adsicbi/jardinapp/rest/services/JardinesInfantilesRest.java
/home/bravo/JardinApp/jardinapp-backend/JardinApp-Backend/src/main/java/com/adsicbi/jardinapp/jpa/entities/TiposDocumentos.java
/home/bravo/JardinApp/jardinapp-backend/JardinApp-Backend/src/main/java/com/adsicbi/jardinapp/rest/auth/RestAuthenticationFilter.java
/home/bravo/JardinApp/jardinapp-backend/JardinApp-Backend/src/main/java/com/adsicbi/jardinapp/jpa/entities/Hijos.java
/home/bravo/JardinApp/jardinapp-backend/JardinApp-Backend/src/main/java/com/adsicbi/jardinapp/jpa/sessions/CiudadesFacade.java
/home/bravo/JardinApp/jardinapp-backend/JardinApp-Backend/src/main/java/com/adsicbi/jardinapp/jpa/sessions/TiposJardinesFacade.java
/home/bravo/JardinApp/jardinapp-backend/JardinApp-Backend/src/main/java/com/adsicbi/jardinapp/jpa/sessions/DetallesPedidosFacade.java
/home/bravo/JardinApp/jardinapp-backend/JardinApp-Backend/src/main/java/com/adsicbi/jardinapp/jpa/entities/Pedidos.java
/home/bravo/JardinApp/jardinapp-backend/JardinApp-Backend/src/main/java/com/adsicbi/jardinapp/jpa/entities/DetallesPedidos.java
/home/bravo/JardinApp/jardinapp-backend/JardinApp-Backend/src/main/java/com/adsicbi/jardinapp/jpa/sessions/UsuariosFacade.java
/home/bravo/JardinApp/jardinapp-backend/JardinApp-Backend/src/main/java/com/adsicbi/jardinapp/jpa/entities/MiEmpresa.java
/home/bravo/JardinApp/jardinapp-backend/JardinApp-Backend/src/main/java/com/adsicbi/jardinapp/jpa/entities/CiudadesPK.java
/home/bravo/JardinApp/jardinapp-backend/JardinApp-Backend/src/main/java/com/adsicbi/jardinapp/rest/services/ApplicationConfig.java
/home/bravo/JardinApp/jardinapp-backend/JardinApp-Backend/src/main/java/com/adsicbi/jardinapp/rest/services/ServiciosRest.java
/home/bravo/JardinApp/jardinapp-backend/JardinApp-Backend/src/main/java/com/adsicbi/jardinapp/rest/auth/AuthUtils.java
/home/bravo/JardinApp/jardinapp-backend/JardinApp-Backend/src/main/java/com/adsicbi/jardinapp/rest/services/PaisesRest.java
/home/bravo/JardinApp/jardinapp-backend/JardinApp-Backend/src/main/java/com/adsicbi/jardinapp/jpa/entities/Inquietudes.java
/home/bravo/JardinApp/jardinapp-backend/JardinApp-Backend/src/main/java/com/adsicbi/jardinapp/rest/services/DepartamentosRest.java
/home/bravo/JardinApp/jardinapp-backend/JardinApp-Backend/src/main/java/com/adsicbi/jardinapp/jpa/sessions/TiposDocumentosFacade.java
=======
/home/angela/Documentos/angelalemos/nuevo/jardinapp-backend/JardinApp-Backend/src/main/java/com/adsicbi/jardinapp/jpa/entities/Servicios.java
/home/angela/Documentos/angelalemos/nuevo/jardinapp-backend/JardinApp-Backend/src/main/java/com/adsicbi/jardinapp/rest/services/ServiciosRest.java
/home/angela/Documentos/angelalemos/nuevo/jardinapp-backend/JardinApp-Backend/src/main/java/com/adsicbi/jardinapp/jpa/sessions/UsuariosFacade.java
/home/angela/Documentos/angelalemos/nuevo/jardinapp-backend/JardinApp-Backend/src/main/java/com/adsicbi/jardinapp/jpa/sessions/ContactoFacade.java
/home/angela/Documentos/angelalemos/nuevo/jardinapp-backend/JardinApp-Backend/src/main/java/com/adsicbi/jardinapp/jpa/entities/DetallesPedidos.java
/home/angela/Documentos/angelalemos/nuevo/jardinapp-backend/JardinApp-Backend/src/main/java/com/adsicbi/jardinapp/jpa/entities/MiEmpresa.java
/home/angela/Documentos/angelalemos/nuevo/jardinapp-backend/JardinApp-Backend/src/main/java/com/adsicbi/jardinapp/jpa/sessions/AnunciosFacade.java
/home/angela/Documentos/angelalemos/nuevo/jardinapp-backend/JardinApp-Backend/src/main/java/com/adsicbi/jardinapp/jpa/sessions/TiposDocumentosFacade.java
/home/angela/Documentos/angelalemos/nuevo/jardinapp-backend/JardinApp-Backend/src/main/java/com/adsicbi/jardinapp/rest/services/InquietudesRest.java
/home/angela/Documentos/angelalemos/nuevo/jardinapp-backend/JardinApp-Backend/src/main/java/com/adsicbi/jardinapp/jpa/entities/Ciudades.java
/home/angela/Documentos/angelalemos/nuevo/jardinapp-backend/JardinApp-Backend/src/main/java/com/adsicbi/jardinapp/jpa/sessions/CiudadesFacade.java
/home/angela/Documentos/angelalemos/nuevo/jardinapp-backend/JardinApp-Backend/src/main/java/com/adsicbi/jardinapp/jpa/entities/Departamentos.java
/home/angela/Documentos/angelalemos/nuevo/jardinapp-backend/JardinApp-Backend/src/main/java/com/adsicbi/jardinapp/rest/services/UsuariosRest.java
/home/angela/Documentos/angelalemos/nuevo/jardinapp-backend/JardinApp-Backend/src/main/java/com/adsicbi/jardinapp/rest/services/DepartamentosRest.java
/home/angela/Documentos/angelalemos/nuevo/jardinapp-backend/JardinApp-Backend/src/main/java/com/adsicbi/jardinapp/jpa/sessions/AbstractFacade.java
/home/angela/Documentos/angelalemos/nuevo/jardinapp-backend/JardinApp-Backend/src/main/java/com/adsicbi/jardinapp/rest/auth/NewCrossOriginResourceSharingFilter.java
/home/angela/Documentos/angelalemos/nuevo/jardinapp-backend/JardinApp-Backend/src/main/java/com/adsicbi/jardinapp/rest/services/CiudadesRest.java
/home/angela/Documentos/angelalemos/nuevo/jardinapp-backend/JardinApp-Backend/src/main/java/com/adsicbi/jardinapp/jpa/entities/Hijos.java
/home/angela/Documentos/angelalemos/nuevo/jardinapp-backend/JardinApp-Backend/src/main/java/com/adsicbi/jardinapp/jpa/sessions/MiEmpresaFacade.java
/home/angela/Documentos/angelalemos/nuevo/jardinapp-backend/JardinApp-Backend/src/main/java/com/adsicbi/jardinapp/jpa/sessions/PaisesFacade.java
/home/angela/Documentos/angelalemos/nuevo/jardinapp-backend/JardinApp-Backend/src/main/java/com/adsicbi/jardinapp/rest/services/DetallesPedidosRest.java
/home/angela/Documentos/angelalemos/nuevo/jardinapp-backend/JardinApp-Backend/src/main/java/com/adsicbi/jardinapp/jpa/sessions/DepartamentosFacade.java
/home/angela/Documentos/angelalemos/nuevo/jardinapp-backend/JardinApp-Backend/src/main/java/com/adsicbi/jardinapp/jpa/entities/Calificaciones.java
/home/angela/Documentos/angelalemos/nuevo/jardinapp-backend/JardinApp-Backend/src/main/java/com/adsicbi/jardinapp/jpa/entities/TiposDocumentos.java
/home/angela/Documentos/angelalemos/nuevo/jardinapp-backend/JardinApp-Backend/src/main/java/com/adsicbi/jardinapp/jpa/sessions/PedidosFacade.java
/home/angela/Documentos/angelalemos/nuevo/jardinapp-backend/JardinApp-Backend/src/main/java/com/adsicbi/jardinapp/rest/services/ApplicationConfig.java
/home/angela/Documentos/angelalemos/nuevo/jardinapp-backend/JardinApp-Backend/src/main/java/com/adsicbi/jardinapp/jpa/sessions/HijosFacade.java
/home/angela/Documentos/angelalemos/nuevo/jardinapp-backend/JardinApp-Backend/src/main/java/com/adsicbi/jardinapp/rest/services/JardinesInfantilesRest.java
/home/angela/Documentos/angelalemos/nuevo/jardinapp-backend/JardinApp-Backend/src/main/java/com/adsicbi/jardinapp/jpa/sessions/RolesFacade.java
/home/angela/Documentos/angelalemos/nuevo/jardinapp-backend/JardinApp-Backend/src/main/java/com/adsicbi/jardinapp/rest/auth/RestAuthenticationFilter.java
/home/angela/Documentos/angelalemos/nuevo/jardinapp-backend/JardinApp-Backend/src/main/java/com/adsicbi/jardinapp/jpa/entities/TiposJardines.java
/home/angela/Documentos/angelalemos/nuevo/jardinapp-backend/JardinApp-Backend/src/main/java/com/adsicbi/jardinapp/jpa/entities/Anuncios.java
/home/angela/Documentos/angelalemos/nuevo/jardinapp-backend/JardinApp-Backend/src/main/java/com/adsicbi/jardinapp/jpa/sessions/TiposJardinesFacade.java
/home/angela/Documentos/angelalemos/nuevo/jardinapp-backend/JardinApp-Backend/src/main/java/com/adsicbi/jardinapp/jpa/entities/CiudadesPK.java
/home/angela/Documentos/angelalemos/nuevo/jardinapp-backend/JardinApp-Backend/src/main/java/com/adsicbi/jardinapp/jpa/sessions/CalificacionesFacade.java
/home/angela/Documentos/angelalemos/nuevo/jardinapp-backend/JardinApp-Backend/src/main/java/com/adsicbi/jardinapp/jpa/sessions/DetallesPedidosFacade.java
/home/angela/Documentos/angelalemos/nuevo/jardinapp-backend/JardinApp-Backend/src/main/java/com/adsicbi/jardinapp/jpa/sessions/InquietudesFacade.java
/home/angela/Documentos/angelalemos/nuevo/jardinapp-backend/JardinApp-Backend/src/main/java/com/adsicbi/jardinapp/jpa/entities/Inquietudes.java
/home/angela/Documentos/angelalemos/nuevo/jardinapp-backend/JardinApp-Backend/src/main/java/com/adsicbi/jardinapp/rest/auth/Token.java
/home/angela/Documentos/angelalemos/nuevo/jardinapp-backend/JardinApp-Backend/src/main/java/com/adsicbi/jardinapp/rest/services/PaisesRest.java
/home/angela/Documentos/angelalemos/nuevo/jardinapp-backend/JardinApp-Backend/src/main/java/com/adsicbi/jardinapp/jpa/entities/JardinesInfantiles.java
/home/angela/Documentos/angelalemos/nuevo/jardinapp-backend/JardinApp-Backend/src/main/java/com/adsicbi/jardinapp/jpa/entities/Pedidos.java
/home/angela/Documentos/angelalemos/nuevo/jardinapp-backend/JardinApp-Backend/src/main/java/com/adsicbi/jardinapp/jpa/entities/Paises.java
/home/angela/Documentos/angelalemos/nuevo/jardinapp-backend/JardinApp-Backend/src/main/java/com/adsicbi/jardinapp/rest/services/RolesRest.java
/home/angela/Documentos/angelalemos/nuevo/jardinapp-backend/JardinApp-Backend/src/main/java/com/adsicbi/jardinapp/rest/auth/AuthUtils.java
/home/angela/Documentos/angelalemos/nuevo/jardinapp-backend/JardinApp-Backend/src/main/java/com/adsicbi/jardinapp/jpa/entities/Usuarios.java
/home/angela/Documentos/angelalemos/nuevo/jardinapp-backend/JardinApp-Backend/src/main/java/com/adsicbi/jardinapp/jpa/sessions/ServiciosFacade.java
/home/angela/Documentos/angelalemos/nuevo/jardinapp-backend/JardinApp-Backend/src/main/java/com/adsicbi/jardinapp/rest/auth/AuthREST.java
/home/angela/Documentos/angelalemos/nuevo/jardinapp-backend/JardinApp-Backend/src/main/java/com/adsicbi/jardinapp/jpa/sessions/JardinesInfantilesFacade.java
/home/angela/Documentos/angelalemos/nuevo/jardinapp-backend/JardinApp-Backend/src/main/java/com/adsicbi/jardinapp/rest/auth/DigestUtil.java
/home/angela/Documentos/angelalemos/nuevo/jardinapp-backend/JardinApp-Backend/src/main/java/com/adsicbi/jardinapp/jpa/entities/Roles.java
/home/angela/Documentos/angelalemos/nuevo/jardinapp-backend/JardinApp-Backend/src/main/java/com/adsicbi/jardinapp/rest/services/PedidosRest.java
/home/angela/Documentos/angelalemos/nuevo/jardinapp-backend/JardinApp-Backend/src/main/java/com/adsicbi/jardinapp/jpa/entities/Contacto.java
>>>>>>> ad25aa9e89c867adf2a0639c3c4031d6f553d6e3
